%YAML 1.1
%TAG !u! tag:unity3d.com,2011:
--- !u!78 &1
TagManager:
  serializedVersion: 2
  tags:
  - Enemy
  - DeadEnemy
  layers:
  - Default
  - TransparentFX
  - Ignore Raycast
  - 
  - Water
  - UI
  - 
  - 
  - PostProcessing
  - Enemy
  - Player
  - 
  - VisionBlocker
  - MovementBlocker
  - 
  - 
  - 
  - 
  - 
  - 
  - 
  - 
  - 
  - 
  - 
  - 
  - 
  - 
  - 
  - 
  - 
  - 
  m_SortingLayers:
  - name: Background
    uniqueID: 3462026353
    locked: 0
  - name: Default
    uniqueID: 0
    locked: 0
  - name: Enemy
    uniqueID: 1382602123
    locked: 0
  - name: Player
    uniqueID: 4273537915
    locked: 0
  - name: Foreground
    uniqueID: 4292641275
    locked: 0
