%YAML 1.1
%TAG !u! tag:unity3d.com,2011:
--- !u!241 &24100000
AudioMixerController:
  m_ObjectHideFlags: 0
  m_CorrespondingSourceObject: {fileID: 0}
  m_PrefabInternal: {fileID: 0}
  m_Name: LowPassAudioMixer
  m_OutputGroup: {fileID: 0}
  m_MasterGroup: {fileID: 24300002}
  m_Snapshots:
  - {fileID: 24500006}
  m_StartSnapshot: {fileID: 24500006}
  m_SuspendThreshold: -80
  m_EnableSuspend: 1
  m_UpdateMode: 0
  m_ExposedParameters: []
  m_AudioMixerGroupViews:
  - guids:
    - 2ab1e035706a72541b5429d6490ec6e4
    name: View
  m_CurrentViewIndex: 0
  m_TargetSnapshot: {fileID: 24500006}
--- !u!243 &24300002
AudioMixerGroupController:
  m_ObjectHideFlags: 0
  m_CorrespondingSourceObject: {fileID: 0}
  m_PrefabInternal: {fileID: 0}
  m_Name: Master
  m_AudioMixer: {fileID: 24100000}
  m_GroupID: 2ab1e035706a72541b5429d6490ec6e4
  m_Children: []
  m_Volume: d5c9fd66be4cbc4479f6123e67978981
  m_Pitch: 9c5b1c888efc3554d921beaa9b6f1d1a
  m_Effects:
  - {fileID: 24400004}
  - {fileID: 244138085756610464}
  m_UserColorIndex: 0
  m_Mute: 0
  m_Solo: 0
  m_BypassEffects: 0
--- !u!244 &24400004
AudioMixerEffectController:
  m_ObjectHideFlags: 3
  m_CorrespondingSourceObject: {fileID: 0}
  m_PrefabInternal: {fileID: 0}
  m_Name: 
  m_EffectID: a66532a107a037140a9374321e7af1cc
  m_EffectName: Attenuation
  m_MixLevel: fca9d26674fc13b4cb166482520c1f67
  m_Parameters: []
  m_SendTarget: {fileID: 0}
  m_EnableWetMix: 0
  m_Bypass: 0
--- !u!245 &24500006
AudioMixerSnapshotController:
  m_ObjectHideFlags: 0
  m_CorrespondingSourceObject: {fileID: 0}
  m_PrefabInternal: {fileID: 0}
  m_Name: Snapshot
  m_AudioMixer: {fileID: 24100000}
  m_SnapshotID: bb720b2069722374dbf82c52cc80b118
  m_FloatValues:
    f8ae06f2a73b7da48be467cef0c9cb0c: 300
  m_TransitionOverrides: {}
--- !u!244 &244138085756610464
AudioMixerEffectController:
  m_ObjectHideFlags: 3
  m_CorrespondingSourceObject: {fileID: 0}
  m_PrefabInternal: {fileID: 0}
  m_Name: 
  m_EffectID: 79ce4171248018b439002cdbefe17df7
  m_EffectName: Lowpass
  m_MixLevel: 4826b431354569e43936fa94d50dfe3a
  m_Parameters:
  - m_ParameterName: Cutoff freq
    m_GUID: f8ae06f2a73b7da48be467cef0c9cb0c
  - m_ParameterName: Resonance
    m_GUID: 1cafb5ab0f313c04c8ccc46d949a25aa
  m_SendTarget: {fileID: 0}
  m_EnableWetMix: 0
  m_Bypass: 0
